ProductName,Industry,Category,Sub-Category,Brand,Manufacturer,CaseWeight,Packaging,ShippingCondition,QuantityperCase,Description,MinProfitMargin,Prefix1,ProductCode1,Prefix2,ProductCode2,Prefix3,ProductCode3,Image1,Image2,Image3,Image4,Image5,Image6,Image7,Image8
"Apple iPad mini 3 16GB With Wi-Fi - Gold
",Consumer Electronics,Computers & Tablets,Tablets,Apple,Apple,1 lb,1 tablet,"Room Temperature, Do Not Freeze",6,"Think of the iPad mini 3 as a convenience boost without compromising on performance. Smaller and thinner, the mini packs the same punch as the iPad. It's hard to go wrong with a Retina display that makes every nuance and detail of a shot or video pop out on the screen. The Touch ID home button lets you secure your mini with just your fingerprint.
",40,Model Number,MGYE2CL/A ,Other,10303932,,,10246591.jpg,10246591_1.jpg,10246591_2.jpg,10246591_2.jpg,10246591_2.jpg,10246591_2.jpg,10246591_2.jpg,10246591_2.jpg
"Samsung Galaxy Tab A 8"" 16GB Android 5.0 Lollipop Tablet - Titanium",Consumer Electronics,Computers & Tablets,Tablets,Samsung,Samsung,1 lb,1 tablet,"Room Temperature, Do Not Freeze",6,"The Samsung Galaxy Tab A blends the perfect amount of work and play. A powerful quad-core processor delivers smooth performance when streaming videos, while a high resolution 8"" touchscreen display produces brilliant imagery for a captivating viewing experience. It's also preloaded with Microsoft Office so you can get your work done when on-the-go.
",40,Model Number,SM-T350NZAAXAC,Other,10369795,,,10246591.jpg,10246591.jpg,10246591.jpg,10246591.jpg,10246591.jpg,10246591.jpg,,
