postid,userid,pdate,productno,industry,category,subcategory,brand,ptype,currency,uom,quantity,location,expdate,expirydate,customerrefno,pakaging,language,timeframe,country,pstatus,targetprice,postno,tempid,archivepost,buyer,seller,quotefacility,act_inactive,created_at,updated_at,,,,,,,,
1,UUZZ-9984,3/3/2016 7:10,CBN-044-472,,,,,BUY,USD,per box,3,DC-NA,Within 3 Months,,123456,English,33,2 - 3 Weeks,Albania,CANCELLED,23,507554,,1,admin,,,0,NULL,3/21/2016 18:34,,,,,,,,
2,UUZZ-9984,3/3/2016 7:18,WSR-681-637,,,,,BUY,USD,per case,8,DC-UK,3 - 6 Months,,23456,Albanian,5,1 - 2 Weeks,Albania,NEW,8,833526,,0,admin,JSOL-6911,,0,NULL,3/22/2016 4:33,,,,,,,,
4,UUZZ-9984,3/20/2016 1:48,XJS-112-292,,,,,BUY,GBP,,12,DC-UK,Within 3 Months,3/20/2016,123456,English,33,1 - 2 Weeks,Iceland,NEW,123,180926,,0,UUZZ-9984,,,0,3/20/2016 1:48,3/20/2016 1:48,,,,,,,,
,,,,,,,,,,,,,,,,,,,,,,,,,,,,,,,,,,,,,,
,,,,,,,,,,,,,,,,,,,,,,,,,,,,,,,,,,,,,,
,,,,,,,,,,,,,,,,,,,,,,,,,,,,,,,,,,,,,,
